ne550/Lab 7/Data/Station4/ALL0006.CSV

Memory Length,25000,Memory Length,25000,
Trigger Level,476mV,Trigger Level,476mV,
Source,CH1,Source,CH3,
Probe Ratio,1.000E+00,Probe Ratio,1.000E+00,
Vertical Units,V,Vertical Units,V,
Vertical Scale,1.000E-02,Vertical Scale,1.000E+00,
Vertical Position,-2.160E-02,Vertical Position,-2.000E+00,
Horizontal Units,S,Horizontal Units,S,
Horizontal Scale,5.000E-06,Horizontal Scale,5.000E-06,
Horizontal Position,1.005E-05,Horizontal Position,1.005E-05,
Horizontal Mode,Main,Horizontal Mode,Main,
Sampling Period,2.000E-09,Sampling Period,2.000E-09,
Firmware,V1.21,Firmware,V1.21,
Time,24-Mar-17 06:29:47,Time,24-Mar-17 06:29:48,
Mode,Detail,Mode,Detail,
Waveform Data,,Waveform Data,,
-1.495000e-05,0.001200,-1.495000e-05,-0.080000,
-1.494800e-05,0.000400,-1.494800e-05,-0.080000,
-1.494600e-05,0.000000,-1.494600e-05,-0.080000,
-1.494400e-05,0.000000,-1.494400e-05,-0.080000,
-1.494200e-05,0.000400,-1.494200e-05,-0.080000,
-1.494000e-05,0.000000,-1.494000e-05,-0.040000,
-1.493800e-05,0.000400,-1.493800e-05,-0.080000,
-1.493600e-05,0.000000,-1.493600e-05,-0.040000,
-1.493400e-05,-0.000800,-1.493400e-05,-0.080000,
-1.493200e-05,0.000800,-1.493200e-05,-0.080000,
-1.493000e-05,0.001200,-1.493000e-05,-0.080000,
-1.492800e-05,0.003200,-1.492800e-05,-0.080000,
-1.492600e-05,0.003200,-1.492600e-05,-0.080000,
-1.492400e-05,0.003200,-1.492400e-05,-0.080000,
-1.492200e-05,0.001600,-1.492200e-05,-0.080000,
-1.492000e-05,-0.002000,-1.492000e-05,-0.080000,
-1.491800e-05,-0.002800,-1.491800e-05,-0.080000,
-1.491600e-05,-0.002000,-1.491600e-05,-0.080000,
-1.491400e-05,0.000800,-1.491400e-05,-0.080000,
-1.491200e-05,0.000800,-1.491200e-05,-0.080000,
-1.491000e-05,0.000400,-1.491000e-05,-0.080000,
-1.490800e-05,0.002800,-1.490800e-05,-0.080000,
-1.490600e-05,0.000000,-1.490600e-05,-0.080000,
-1.490400e-05,-0.002000,-1.490400e-05,-0.080000,
-1.490200e-05,0.000400,-1.490200e-05,-0.080000,
-1.490000e-05,0.000400,-1.490000e-05,-0.080000,
-1.489800e-05,0.001600,-1.489800e-05,-0.080000,
-1.489600e-05,0.002000,-1.489600e-05,-0.080000,
-1.489400e-05,0.005600,-1.489400e-05,-0.080000,
-1.489200e-05,0.005600,-1.489200e-05,-0.080000,
-1.489000e-05,0.000400,-1.489000e-05,-0.080000,
-1.488800e-05,-0.001200,-1.488800e-05,-0.080000,
-1.488600e-05,-0.002400,-1.488600e-05,-0.040000,
-1.488400e-05,-0.003200,-1.488400e-05,-0.080000,
-1.488200e-05,-0.002400,-1.488200e-05,-0.080000,
-1.488000e-05,-0.001200,-1.488000e-05,-0.080000,
-1.487800e-05,0.001600,-1.487800e-05,-0.040000,
-1.487600e-05,-0.000800,-1.487600e-05,-0.080000,
-1.487400e-05,0.002000,-1.487400e-05,-0.080000,
-1.487200e-05,0.002800,-1.487200e-05,-0.080000,
-1.487000e-05,0.004000,-1.487000e-05,-0.080000,
-1.486800e-05,0.002400,-1.486800e-05,-0.080000,
-1.486600e-05,0.002000,-1.486600e-05,-0.080000,
-1.486400e-05,0.001200,-1.486400e-05,-0.080000,
-1.486200e-05,-0.000400,-1.486200e-05,-0.080000,
-1.486000e-05,-0.000800,-1.486000e-05,-0.080000,
-1.485800e-05,-0.001200,-1.485800e-05,-0.040000,
-1.485600e-05,-0.000400,-1.485600e-05,-0.080000,
-1.485400e-05,-0.000400,-1.485400e-05,-0.080000,
-1.485200e-05,0.001600,-1.485200e-05,-0.080000,
-1.485000e-05,0.001200,-1.485000e-05,-0.040000,
-1.484800e-05,0.000400,-1.484800e-05,-0.080000,
-1.484600e-05,-0.000400,-1.484600e-05,-0.040000,
-1.484400e-05,-0.000400,-1.484400e-05,-0.040000,
-1.484200e-05,0.000000,-1.484200e-05,-0.080000,
-1.484000e-05,0.000800,-1.484000e-05,-0.080000,
-1.483800e-05,0.002000,-1.483800e-05,-0.080000,
-1.483600e-05,0.002800,-1.483600e-05,-0.040000,
-1.483400e-05,0.002000,-1.483400e-05,-0.080000,
-1.483200e-05,0.001200,-1.483200e-05,-0.080000,
-1.483000e-05,0.000400,-1.483000e-05,-0.080000,
-1.482800e-05,-0.000800,-1.482800e-05,-0.080000,
-1.482600e-05,-0.001600,-1.482600e-05,-0.080000,
-1.482400e-05,-0.000800,-1.482400e-05,-0.080000,
-1.482200e-05,0.000400,-1.482200e-05,-0.080000,
-1.482000e-05,0.000800,-1.482000e-05,-0.080000,
-1.481800e-05,0.001600,-1.481800e-05,-0.080000,
-1.481600e-05,0.001600,-1.481600e-05,-0.080000,
-1.481400e-05,0.003200,-1.481400e-05,-0.080000,
-1.481200e-05,0.001600,-1.481200e-05,-0.080000,
-1.481000e-05,0.000400,-1.481000e-05,-0.080000,
-1.480800e-05,0.000800,-1.480800e-05,-0.080000,
-1.480600e-05,0.000800,-1.480600e-05,-0.080000,
-1.480400e-05,0.000800,-1.480400e-05,-0.080000,
-1.480200e-05,0.000400,-1.480200e-05,-0.080000,
-1.480000e-05,0.000800,-1.480000e-05,-0.040000,
-1.479800e-05,0.002000,-1.479800e-05,-0.080000,
-1.479600e-05,-0.000800,-1.479600e-05,-0.080000,
-1.479400e-05,-0.002000,-1.479400e-05,-0.080000,
-1.479200e-05,-0.000800,-1.479200e-05,-0.080000,
-1.479000e-05,0.001600,-1.479000e-05,-0.040000,
-1.478800e-05,0.001200,-1.478800e-05,-0.080000,
-1.478600e-05,0.000800,-1.478600e-05,-0.080000,
-1.478400e-05,0.002000,-1.478400e-05,-0.080000,
-1.478200e-05,0.003200,-1.478200e-05,-0.080000,
-1.478000e-05,-0.000400,-1.478000e-05,-0.080000,
-1.477800e-05,0.000000,-1.477800e-05,-0.080000,
-1.477600e-05,0.001600,-1.477600e-05,-0.080000,
-1.477400e-05,0.002800,-1.477400e-05,-0.040000,
-1.477200e-05,-0.000400,-1.477200e-05,-0.040000,
-1.477000e-05,0.000400,-1.477000e-05,-0.080000,
-1.476800e-05,0.001600,-1.476800e-05,-0.080000,
-1.476600e-05,0.000400,-1.476600e-05,-0.080000,
-1.476400e-05,-0.002000,-1.476400e-05,-0.080000,
-1.476200e-05,-0.001600,-1.476200e-05,-0.080000,
-1.476000e-05,0.000800,-1.476000e-05,-0.080000,
-1.475800e-05,0.000800,-1.475800e-05,-0.080000,
-1.475600e-05,0.001600,-1.475600e-05,-0.080000,
-1.475400e-05,0.002400,-1.475400e-05,-0.080000,
-1.475200e-05,0.001600,-1.475200e-05,-0.080000,
-1.475000e-05,-0.000400,-1.475000e-05,-0.080000,
-1.474800e-05,-0.000400,-1.474800e-05,-0.080000,
-1.474600e-05,0.002400,-1.474600e-05,-0.080000,
-1.474400e-05,0.002400,-1.474400e-05,-0.080000,
-1.474200e-05,0.002000,-1.474200e-05,-0.080000,
-1.474000e-05,0.000800,-1.474000e-05,-0.080000,
-1.473800e-05,-0.000400,-1.473800e-05,-0.080000,
-1.473600e-05,-0.000800,-1.473600e-05,-0.080000,
-1.473400e-05,-0.000400,-1.473400e-05,-0.080000,
-1.473200e-05,0.000400,-1.473200e-05,-0.080000,
-1.473000e-05,-0.000400,-1.473000e-05,-0.080000,
-1.472800e-05,-0.000400,-1.472800e-05,-0.080000,
-1.472600e-05,0.001200,-1.472600e-05,-0.080000,
-1.472400e-05,0.001600,-1.472400e-05,-0.080000,
-1.472200e-05,0.001600,-1.472200e-05,-0.080000,
-1.472000e-05,0.001200,-1.472000e-05,-0.080000,
-1.471800e-05,0.001600,-1.471800e-05,-0.040000,
-1.471600e-05,0.002000,-1.471600e-05,-0.080000,
-1.471400e-05,0.002800,-1.471400e-05,-0.040000,
-1.471200e-05,0.004400,-1.471200e-05,-0.080000,
-1.471000e-05,0.003600,-1.471000e-05,-0.080000,
-1.470800e-05,0.002000,-1.470800e-05,-0.080000,
-1.470600e-05,0.000000,-1.470600e-05,-0.080000,
-1.470400e-05,-0.002400,-1.470400e-05,-0.080000,
-1.470200e-05,-0.004000,-1.470200e-05,-0.080000,
-1.470000e-05,-0.004000,-1.470000e-05,-0.080000,
-1.469800e-05,-0.002800,-1.469800e-05,-0.080000,
-1.469600e-05,-0.001200,-1.469600e-05,-0.080000,
-1.469400e-05,-0.000400,-1.469400e-05,-0.080000,
-1.469200e-05,0.000800,-1.469200e-05,-0.080000,
-1.469000e-05,0.001200,-1.469000e-05,-0.080000,
-1.468800e-05,0.005200,-1.468800e-05,-0.080000,
-1.468600e-05,0.003200,-1.468600e-05,-0.080000,
-1.468400e-05,0.004000,-1.468400e-05,-0.040000,
-1.468200e-05,0.002800,-1.468200e-05,-0.080000,
-1.468000e-05,0.003600,-1.468000e-05,-0.080000,
-1.467800e-05,0.004000,-1.467800e-05,-0.080000,
-1.467600e-05,0.003600,-1.467600e-05,-0.080000,
-1.467400e-05,0.003600,-1.467400e-05,-0.080000,
-1.467200e-05,-0.000400,-1.467200e-05,-0.080000,
-1.467000e-05,-0.006400,-1.467000e-05,-0.040000,
-1.466800e-05,-0.009200,-1.466800e-05,-0.040000,
-1.466600e-05,-0.008000,-1.466600e-05,-0.080000,
-1.466400e-05,-0.004800,-1.466400e-05,-0.080000,
-1.466200e-05,-0.002400,-1.466200e-05,-0.080000,
-1.466000e-05,-0.001600,-1.466000e-05,-0.080000,
-1.465800e-05,0.002000,-1.465800e-05,-0.040000,
-1.465600e-05,0.001600,-1.465600e-05,-0.080000,
-1.465400e-05,0.002000,-1.465400e-05,-0.080000,
-1.465200e-05,0.001600,-1.465200e-05,-0.080000,
-1.465000e-05,0.004000,-1.465000e-05,-0.080000,
-1.464800e-05,0.005200,-1.464800e-05,-0.080000,
-1.464600e-05,0.004800,-1.464600e-05,-0.080000,
-1.464400e-05,0.004800,-1.464400e-05,-0.080000,
-1.464200e-05,0.005600,-1.464200e-05,-0.080000,
-1.464000e-05,0.004800,-1.464000e-05,-0.040000,
-1.463800e-05,0.004000,-1.463800e-05,-0.080000,
-1.463600e-05,0.002400,-1.463600e-05,-0.080000,
-1.463400e-05,-0.000800,-1.463400e-05,-0.080000,
-1.463200e-05,-0.003200,-1.463200e-05,-0.080000,
-1.463000e-05,-0.006000,-1.463000e-05,-0.080000,
-1.462800e-05,-0.004800,-1.462800e-05,-0.080000,
-1.462600e-05,-0.005600,-1.462600e-05,-0.040000,
-1.462400e-05,-0.002000,-1.462400e-05,-0.080000,
-1.462200e-05,-0.000400,-1.462200e-05,-0.080000,
-1.462000e-05,0.001600,-1.462000e-05,-0.080000,
-1.461800e-05,0.001600,-1.461800e-05,-0.080000,
-1.461600e-05,0.001200,-1.461600e-05,-0.040000,
-1.461400e-05,0.001200,-1.461400e-05,-0.080000,
-1.461200e-05,0.000400,-1.461200e-05,-0.040000,
-1.461000e-05,0.000000,-1.461000e-05,-0.080000,
-1.460800e-05,0.000000,-1.460800e-05,-0.080000,
-1.460600e-05,0.000800,-1.460600e-05,-0.080000,
-1.460400e-05,0.003600,-1.460400e-05,-0.080000,
-1.460200e-05,0.007200,-1.460200e-05,-0.040000,
-1.460000e-05,0.007200,-1.460000e-05,-0.080000,
-1.459800e-05,0.005600,-1.459800e-05,-0.080000,
-1.459600e-05,0.002000,-1.459600e-05,-0.080000,
-1.459400e-05,-0.000400,-1.459400e-05,-0.040000,
-1.459200e-05,-0.002400,-1.459200e-05,-0.040000,
-1.459000e-05,-0.002400,-1.459000e-05,-0.040000,
-1.458800e-05,-0.000400,-1.458800e-05,-0.040000,
-1.458600e-05,0.000400,-1.458600e-05,-0.080000,
-1.458400e-05,0.000400,-1.458400e-05,-0.080000,
-1.458200e-05,-0.001200,-1.458200e-05,-0.080000,
-1.458000e-05,-0.003200,-1.458000e-05,-0.080000,
-1.457800e-05,-0.005200,-1.457800e-05,-0.080000,
-1.457600e-05,-0.005600,-1.457600e-05,-0.080000,
-1.457400e-05,-0.003600,-1.457400e-05,-0.080000,
-1.457200e-05,-0.000800,-1.457200e-05,-0.080000,
-1.457000e-05,0.001600,-1.457000e-05,-0.080000,
-1.456800e-05,0.004000,-1.456800e-05,-0.040000,
-1.456600e-05,0.005200,-1.456600e-05,-0.080000,
-1.456400e-05,0.005600,-1.456400e-05,-0.080000,
-1.456200e-05,0.004000,-1.456200e-05,-0.040000,
-1.456000e-05,0.002800,-1.456000e-05,-0.080000,
-1.455800e-05,0.001600,-1.455800e-05,-0.040000,
-1.455600e-05,0.002800,-1.455600e-05,-0.080000,
-1.455400e-05,0.001600,-1.455400e-05,-0.080000,
-1.455200e-05,0.002000,-1.455200e-05,-0.080000,
-1.455000e-05,0.002800,-1.455000e-05,-0.080000,
-1.454800e-05,0.004000,-1.454800e-05,-0.080000,
-1.454600e-05,0.001200,-1.454600e-05,-0.080000,
-1.454400e-05,-0.002800,-1.454400e-05,-0.080000,
-1.454200e-05,-0.003200,-1.454200e-05,-0.080000,
-1.454000e-05,-0.002400,-1.454000e-05,-0.080000,
-1.453800e-05,-0.002800,-1.453800e-05,-0.080000,
-1.453600e-05,-0.003200,-1.453600e-05,-0.080000,
-1.453400e-05,-0.000800,-1.453400e-05,-0.080000,
-1.453200e-05,0.000800,-1.453200e-05,-0.080000,
-1.453000e-05,0.000800,-1.453000e-05,-0.080000,
-1.452800e-05,0.000400,-1.452800e-05,-0.080000,
-1.452600e-05,0.000800,-1.452600e-05,-0.080000,
-1.452400e-05,0.001600,-1.452400e-05,-0.080000,
-1.452200e-05,0.002400,-1.452200e-05,-0.040000,
-1.452000e-05,0.003200,-1.452000e-05,-0.040000,
-1.451800e-05,0.004400,-1.451800e-05,-0.080000,
-1.451600e-05,0.001600,-1.451600e-05,-0.080000,
-1.451400e-05,0.000400,-1.451400e-05,-0.080000,
-1.451200e-05,0.000000,-1.451200e-05,-0.080000,
-1.451000e-05,-0.000400,-1.451000e-05,-0.080000,
-1.450800e-05,-0.000400,-1.450800e-05,-0.080000,
-1.450600e-05,-0.000400,-1.450600e-05,-0.080000,
-1.450400e-05,0.000400,-1.450400e-05,-0.080000,
-1.450200e-05,0.000000,-1.450200e-05,-0.080000,
-1.450000e-05,0.000400,-1.450000e-05,-0.080000,
-1.449800e-05,0.002000,-1.449800e-05,-0.080000,
-1.449600e-05,0.002800,-1.449600e-05,-0.080000,
-1.449400e-05,0.002400,-1.449400e-05,-0.080000,
-1.449200e-05,0.001200,-1.449200e-05,-0.040000,
-1.449000e-05,0.001200,-1.449000e-05,-0.080000,
-1.448800e-05,0.001200,-1.448800e-05,-0.080000,
-1.448600e-05,-0.000400,-1.448600e-05,-0.040000,
-1.448400e-05,-0.000400,-1.448400e-05,-0.040000,
-1.448200e-05,-0.001600,-1.448200e-05,-0.040000,
-1.448000e-05,-0.001600,-1.448000e-05,-0.080000,
-1.447800e-05,-0.000400,-1.447800e-05,-0.040000,
-1.447600e-05,0.001600,-1.447600e-05,-0.080000,
-1.447400e-05,0.002000,-1.447400e-05,-0.080000,
-1.447200e-05,0.001200,-1.447200e-05,-0.080000,
-1.447000e-05,0.000800,-1.447000e-05,-0.080000,
-1.446800e-05,0.000400,-1.446800e-05,-0.080000,
-1.446600e-05,0.000000,-1.446600e-05,-0.080000,
-1.446400e-05,0.000400,-1.446400e-05,-0.080000,
-1.446200e-05,0.001600,-1.446200e-05,-0.080000,
-1.446000e-05,0.001600,-1.446000e-05,-0.080000,
-1.445800e-05,0.001600,-1.445800e-05,-0.080000,
-1.445600e-05,0.002000,-1.445600e-05,-0.080000,
-1.445400e-05,0.001200,-1.445400e-05,-0.080000,
-1.445200e-05,0.000000,-1.445200e-05,-0.080000,
-1.445000e-05,0.000000,-1.445000e-05,-0.080000,
-1.444800e-05,0.000400,-1.444800e-05,-0.080000,
-1.444600e-05,0.000400,-1.444600e-05,-0.080000,
-1.444400e-05,0.000000,-1.444400e-05,-0.080000,
-1.444200e-05,0.000400,-1.444200e-05,-0.040000,
-1.444000e-05,0.000400,-1.444000e-05,-0.080000,
-1.443800e-05,0.000000,-1.443800e-05,-0.040000,
-1.443600e-05,0.000000,-1.443600e-05,-0.080000,
-1.443400e-05,0.000000,-1.443400e-05,-0.080000,
-1.443200e-05,0.001200,-1.443200e-05,-0.080000,
-1.443000e-05,0.001200,-1.443000e-05,-0.080000,
-1.442800e-05,0.003600,-1.442800e-05,-0.080000,
-1.442600e-05,0.002800,-1.442600e-05,-0.080000,
-1.442400e-05,0.002400,-1.442400e-05,-0.080000,
-1.442200e-05,0.000800,-1.442200e-05,-0.080000,
-1.442000e-05,-0.001600,-1.442000e-05,-0.080000,
-1.441800e-05,-0.002000,-1.441800e-05,-0.080000,
-1.441600e-05,-0.000800,-1.441600e-05,-0.080000,
-1.441400e-05,0.001200,-1.441400e-05,-0.080000,
-1.441200e-05,0.001200,-1.441200e-05,-0.080000,
-1.441000e-05,0.000800,-1.441000e-05,-0.080000,
-1.440800e-05,0.002000,-1.440800e-05,-0.080000,
-1.440600e-05,-0.003200,-1.440600e-05,-0.040000,
-1.440400e-05,-0.002400,-1.440400e-05,-0.040000,
-1.440200e-05,0.000800,-1.440200e-05,-0.080000,
-1.440000e-05,-0.002000,-1.440000e-05,-0.080000,
-1.439800e-05,0.004000,-1.439800e-05,-0.080000,
-1.439600e-05,0.004800,-1.439600e-05,-0.080000,
-1.439400e-05,0.010400,-1.439400e-05,-0.080000,
-1.439200e-05,0.008000,-1.439200e-05,-0.080000,
-1.439000e-05,0.000000,-1.439000e-05,-0.080000,
-1.438800e-05,-0.000400,-1.438800e-05,-0.080000,
-1.438600e-05,-0.008400,-1.438600e-05,-0.080000,
-1.438400e-05,-0.008000,-1.438400e-05,-0.080000,
-1.438200e-05,-0.004400,-1.438200e-05,-0.040000,
-1.438000e-05,0.000000,-1.438000e-05,-0.080000,
-1.437800e-05,0.003600,-1.437800e-05,-0.080000,
-1.437600e-05,0.000000,-1.437600e-05,-0.080000,
-1.437400e-05,0.004400,-1.437400e-05,-0.080000,
-1.437200e-05,0.004400,-1.437200e-05,-0.080000,
-1.437000e-05,0.004800,-1.437000e-05,-0.080000,
-1.436800e-05,0.000400,-1.436800e-05,-0.080000,
-1.436600e-05,-0.002000,-1.436600e-05,-0.080000,
-1.436400e-05,-0.003600,-1.436400e-05,-0.080000,
-1.436200e-05,-0.003200,-1.436200e-05,-0.040000,
-1.436000e-05,0.002400,-1.436000e-05,-0.040000,
-1.435800e-05,0.004400,-1.435800e-05,-0.040000,
-1.435600e-05,0.002800,-1.435600e-05,-0.040000,
-1.435400e-05,-0.000400,-1.435400e-05,-0.080000,
-1.435200e-05,-0.000400,-1.435200e-05,-0.080000,
-1.435000e-05,-0.000800,-1.435000e-05,-0.080000,
-1.434800e-05,-0.000400,-1.434800e-05,-0.040000,
-1.434600e-05,-0.000400,-1.434600e-05,-0.080000,
-1.434400e-05,0.000400,-1.434400e-05,-0.080000,
-1.434200e-05,0.000000,-1.434200e-05,-0.080000,
-1.434000e-05,0.002000,-1.434000e-05,-0.080000,
-1.433800e-05,0.003600,-1.433800e-05,-0.080000,
-1.433600e-05,0.002800,-1.433600e-05,-0.080000,
-1.433400e-05,0.001600,-1.433400e-05,-0.080000,
-1.433200e-05,0.000400,-1.433200e-05,-0.080000,
-1.433000e-05,0.000400,-1.433000e-05,-0.080000,
-1.432800e-05,-0.001600,-1.432800e-05,-0.080000,
-1.432600e-05,-0.001600,-1.432600e-05,-0.080000,
-1.432400e-05,0.000400,-1.432400e-05,-0.080000,
-1.432200e-05,0.001600,-1.432200e-05,-0.040000,
-1.432000e-05,0.001600,-1.432000e-05,-0.080000,
-1.431800e-05,0.000400,-1.431800e-05,-0.080000,
-1.431600e-05,0.000400,-1.431600e-05,-0.080000,
-1.431400e-05,0.002000,-1.431400e-05,-0.080000,
-1.431200e-05,0.001200,-1.431200e-05,-0.040000,
-1.431000e-05,0.000800,-1.431000e-05,-0.080000,
-1.430800e-05,0.000800,-1.430800e-05,-0.080000,
-1.430600e-05,0.000800,-1.430600e-05,-0.080000,
-1.430400e-05,0.000800,-1.430400e-05,-0.080000,
-1.430200e-05,0.000400,-1.430200e-05,-0.080000,
-1.430000e-05,0.001200,-1.430000e-05,-0.040000,
-1.429800e-05,0.002000,-1.429800e-05,-0.080000,
-1.429600e-05,-0.001600,-1.429600e-05,-0.080000,
-1.429400e-05,-0.002400,-1.429400e-05,-0.080000,
-1.429200e-05,-0.001200,-1.429200e-05,-0.040000,
-1.429000e-05,0.002000,-1.429000e-05,-0.080000,
-1.428800e-05,0.002400,-1.428800e-05,-0.080000,
-1.428600e-05,0.001600,-1.428600e-05,-0.080000,
-1.428400e-05,0.001600,-1.428400e-05,-0.080000,
-1.428200e-05,0.002000,-1.428200e-05,-0.080000,
-1.428000e-05,-0.000800,-1.428000e-05,-0.080000,
-1.427800e-05,0.000000,-1.427800e-05,-0.080000,
-1.427600e-05,0.002000,-1.427600e-05,-0.080000,
-1.427400e-05,0.002800,-1.427400e-05,-0.080000,
-1.427200e-05,-0.000400,-1.427200e-05,-0.080000,
-1.427000e-05,0.000400,-1.427000e-05,-0.080000,
-1.426800e-05,0.002000,-1.426800e-05,-0.080000,
-1.426600e-05,0.000400,-1.426600e-05,-0.080000,
-1.426400e-05,-0.002400,-1.426400e-05,-0.080000,
-1.426200e-05,-0.002000,-1.426200e-05,-0.080000,
-1.426000e-05,0.000800,-1.426000e-05,-0.080000,
-1.425800e-05,0.001200,-1.425800e-05,-0.080000,
-1.425600e-05,0.001600,-1.425600e-05,-0.080000,
-1.425400e-05,0.002400,-1.425400e-05,-0.080000,
-1.425200e-05,0.001200,-1.425200e-05,-0.080000,
-1.425000e-05,-0.000800,-1.425000e-05,-0.080000,
-1.424800e-05,-0.000800,-1.424800e-05,-0.080000,
-1.424600e-05,0.003200,-1.424600e-05,-0.080000,
-1.424400e-05,0.002400,-1.424400e-05,-0.080000,
-1.424200e-05,0.002000,-1.424200e-05,-0.080000,
-1.424000e-05,0.000800,-1.424000e-05,-0.080000,
-1.423800e-05,-0.000400,-1.423800e-05,-0.080000,
-1.423600e-05,-0.001600,-1.423600e-05,-0.080000,
-1.423400e-05,-0.001600,-1.423400e-05,-0.080000,
-1.423200e-05,-0.000800,-1.423200e-05,-0.080000,
-1.423000e-05,-0.000400,-1.423000e-05,-0.080000,
-1.422800e-05,0.001200,-1.422800e-05,-0.080000,
-1.422600e-05,0.002400,-1.422600e-05,-0.080000,
-1.422400e-05,0.001600,-1.422400e-05,-0.040000,
-1.422200e-05,0.000800,-1.422200e-05,-0.080000,
-1.422000e-05,0.000400,-1.422000e-05,-0.080000,
-1.421800e-05,-0.000800,-1.421800e-05,-0.080000,
-1.421600e-05,-0.000800,-1.421600e-05,-0.080000,
-1.421400e-05,0.000800,-1.421400e-05,-0.080000,
-1.421200e-05,0.003200,-1.421200e-05,-0.080000,
-1.421000e-05,0.003600,-1.421000e-05,-0.080000,
-1.420800e-05,0.002800,-1.420800e-05,-0.080000,
-1.420600e-05,0.002000,-1.420600e-05,-0.080000,
-1.420400e-05,-0.000400,-1.420400e-05,-0.080000,
-1.420200e-05,-0.002400,-1.420200e-05,-0.080000,
-1.420000e-05,-0.002400,-1.420000e-05,-0.080000,
-1.419800e-05,-0.001200,-1.419800e-05,-0.080000,
-1.419600e-05,0.000800,-1.419600e-05,-0.040000,
-1.419400e-05,0.001200,-1.419400e-05,-0.080000,
-1.419200e-05,0.002000,-1.419200e-05,-0.080000,
-1.419000e-05,0.001200,-1.419000e-05,-0.080000,
-1.418800e-05,0.003200,-1.418800e-05,-0.080000,
-1.418600e-05,-0.000800,-1.418600e-05,-0.080000,
-1.418400e-05,0.000400,-1.418400e-05,-0.080000,
-1.418200e-05,0.001200,-1.418200e-05,-0.080000,
-1.418000e-05,0.001600,-1.418000e-05,-0.080000,
-1.417800e-05,0.001600,-1.417800e-05,-0.080000,
-1.417600e-05,0.001200,-1.417600e-05,-0.080000,
-1.417400e-05,0.001600,-1.417400e-05,-0.080000,
-1.417200e-05,0.000000,-1.417200e-05,-0.040000,
-1.417000e-05,-0.003200,-1.417000e-05,-0.040000,
-1.416800e-05,-0.002800,-1.416800e-05,-0.080000,
-1.416600e-05,0.000000,-1.416600e-05,-0.080000,
-1.416400e-05,0.002000,-1.416400e-05,-0.080000,
-1.416200e-05,0.001600,-1.416200e-05,-0.080000,
-1.416000e-05,0.000400,-1.416000e-05,-0.080000,
-1.415800e-05,0.002400,-1.415800e-05,-0.080000,
-1.415600e-05,-0.000400,-1.415600e-05,-0.080000,
-1.415400e-05,-0.001600,-1.415400e-05,-0.080000,
